<?xml version="1.0" encoding="utf-8"?>
<svg version="1.0" id="Layer_1" xmlns="http://www.w3.org/2000/svg" xmlns:xlink="http://www.w3.org/1999/xlink" x="0px" y="0px"
	 viewBox="0 0 23 26" style="enable-background:new 0 0 23 26;" xml:space="preserve">
<style type="text/css">
	.st0{fill:#8FB2B8;}
	.st1{fill:#E69898;}
</style>
<path id="if_41.Trophy_290109_1_" class="st0" d="M18.4,9.5c0,3.2-2.1,5.9-5.2,6.7v6h3.5c0.3,0,0.6,0.3,0.6,0.6
	c0,0.3-0.3,0.6-0.6,0.6l0,0H6.3c-0.3,0-0.6-0.3-0.6-0.6c0-0.3,0.3-0.6,0.6-0.6h3.5v-6c-3.1-0.8-5.2-3.5-5.2-6.7c-2.2,0-4-1.8-4.1-4
	c0,0,0,0,0,0V4.3c0-0.3,0.3-0.6,0.6-0.6l0,0h3.5V3.2c0-1-0.8-1.7-1.7-1.7c0,0,0,0,0,0c-0.3,0-0.6-0.3-0.6-0.6s0.3-0.6,0.6-0.6h17.3
	c0.3,0,0.6,0.3,0.6,0.6s-0.3,0.6-0.6,0.6c-1,0-1.7,0.8-1.7,1.7v0.6h3.5c0.3,0,0.6,0.3,0.6,0.6v1.2C22.5,7.7,20.7,9.5,18.4,9.5
	C18.4,9.5,18.4,9.5,18.4,9.5z M10.9,22.3h1.2v-5.8c-0.2,0-0.4,0-0.6,0s-0.4,0-0.6,0L10.9,22.3z M1.7,4.9v0.6c0,1.6,1.3,2.9,2.9,2.9
	c0,0,0,0,0,0V4.9H1.7z M5.1,1.4c0.4,0.5,0.6,1.1,0.6,1.7v6.4c0,3.2,2.5,5.8,5.7,5.9s5.8-2.5,5.9-5.7c0-0.1,0-0.1,0-0.2V3.2
	c0-0.6,0.2-1.2,0.6-1.7L5.1,1.4z M21.3,4.9h-2.9v3.5c1.6,0,2.9-1.3,2.9-2.9c0,0,0,0,0,0L21.3,4.9z M4.6,24.6h13.9
	c0.3,0,0.6,0.3,0.6,0.6c0,0.3-0.3,0.6-0.6,0.6H4.6c-0.3,0-0.6-0.3-0.6-0.6C4,24.8,4.2,24.6,4.6,24.6z"/>
<g>
	<path class="st0" d="M12.8,12.3h-1.6V6C10.6,6.6,9.9,7,9,7.3V5.8C9.5,5.7,9.9,5.4,10.4,5s0.8-0.9,1-1.4h1.3V12.3z"/>
</g>
</svg>
