{
	"items": [
		{
			"version": "2.16.0",
			"date": "2024-07-19T10:00:00.000Z",
			"added": [
				{
					"ru": "Реализован функционал для работы с картами лояльности",
					"ua": "Реалізований функціонал для роботи з картками лояльності"
				}
			]
		},
		{
			"version": "2.15.0",
			"date": "2024-07-05T10:00:00.000Z",
			"added": [
				{
					"ru": "Реализовано логгирование через принт-сервис",
					"ua": "Релізовано логування через принт-сервіс"
				}
			]
		},
		{
			"version": "2.14.0",
			"date": "2023-11-30T10:00:00.000Z",
			"changed": [
				{
					"ru": "Компонент сканирования (Scandit) заменен на бесплатный аналог - библиотеку HTML5 QRCode",
					"ua": "Компонент сканування (Scandit) замінений на безкоштовний аналог - бібліотеку HTML5 QRCode"
				}
			]
		},
		{
			"version": "2.12.7",
			"date": "2022-05-12T13:03:10.957Z",
			"changed": [
				{
					"ru": "Добавлена возможность печати QR-кода",
					"ua": "Додана можливість друку QR-коду"
				},
				{
					"ru": "Добавлена возможность печати отчета за период по лотереям, по отменам, отчета по остаткам билетов и инвентаризации БМЛ",
					"ua": "Додана можливість друку звіту за період, по відмінам, звіту по залишкам білетів та інвентаризвції БМЛ"
				},
				{
					"ru": "Добавлена защита от прямого скачивания шаблонов для приложения",
					"ua": "Доданий захист від прямого скачування шаблонів для додатку"
				},
				{
					"ru": "Сообщение об успешной отмене билетов закрывается автоматически",
					"ua": "Повідомлення про успішну відіну білетів закривається автоматично"
				},
				{
					"ru": "Добавлена иконка статуса принтера",
					"ua": "Додана іконка статусу принтера"
				},
				{
					"ru": "Убрано сообщение \"Операция выполнена успешно\" после сообщении об отмене",
					"ua": "Прибрано повідомлення \"Операція виконана успішно\" після повідомлення про відміну"
				},
				{
					"ru": "В окне выбора точки продаж при нажатии на точку продажи происходит переход на следующий экран",
					"ua": "У вікні вибору точки продажів при натисканні на точку продажу відбувається перехід на наступний екран"
				},
				{
					"ru": "Убран пункт пополнения счета в меню \"Другое\"",
					"ua": "Прибраний пункт поповнення рахунку в меню \"Інше\""
				},
				{
					"ru": "Убрана проверка доступности принтера перед печатью билетов",
					"ua": "Прибрана перевірка доступності принтера перед друком білетів"
				},
				{
					"ru": "Изменен способ продажи билетов: убрана СМС-проверка, добавлена возможность распечатки билетов",
					"ua": "Змінений спосіб продажу білетів: прибрана СМС-перевірка, додана можливість друку білетів"
				},
				{
					"ru": "Убрано сообщение о недоступности принтера при старте приложения",
					"ua": "Видалено повідомлення про недоступність принтера при старті додатку"
				}
			]
		},
		{
			"version": "2.8.25",
			"date": "2021-02-15T00:00:00.000Z",
			"changed": [
				{
					"ru": "Верстка страниц \"Лото-Забава\", \"Мегалот\", \"Швидкограй\", \"Гонка на деньги\", \"Выплата выигрыша\", \"Стирачки\", \"ТипТоп\", \"Каре\", \"Смена пароля\" и \"Другое\" под все разрешения (360..1920)",
					"ua": "Верстка сторінок \"Лото-Забава\", \"Мегалот\", \"Швидкограй\", \"Гонка на гроші\", \"Виплата виграшу\", \"Стирачки\", \"ТіпТоп\", \"Каре\", \"Зміна пароля\" та \"Інше\" під усі варіанти роздільної здатності (360..1920)"
				},
				{
					"ru": "Из приложения убран модуль виртуальной клавиатуры",
					"ua": "З додатку прибраний модуль віртуальної клавіатури"
				},
				{
					"ru": "В инвентаризации БМЛ нехватку билетов можно получить в виде графических штрих-кодов по нажатию на соответствующую кнопку",
					"ua": "В інвентаризації БМЛ нестачу білетів можна отримати у вигляді графічних штрих-кодів після натискання на відповідну кнопку"
				},
				{
					"ru": "Активирована кнопка \"Богатые и известные\" в Лото-забава",
					"ua": "Активована кнопка \"Багаті та відомі\" в Лото-забава"
				}
			]
		},
		{
			"version": "2.7.37",
			"date": "2020-10-13T00:00:00.000Z",
			"added": [
				{
					"ru": "Контроль проверочного кода по длине в проверке билетов (6 цифр)",
					"ua": "Контроль перевірочного коду по довжині в перевірці білетів (6 цифр)"
				},
				{
					"ru": "Переход на форму авторизации при неправильной или устаревшей сессии",
					"ua": "Перехід на форму авторизації при неправильній або застарілій сесії"
				},
				{
					"ru": "Показано окно изменений по версиям приложения при его старте и при вызове из меню",
					"ua": "Показано вікно змін за версіями додатка при його старті і при виклику з меню"
				},
				{
					"ru": "Добавлены подсказки по расположению штрих-кодов на билете БМЛ",
					"ua": "Додані підказки по розташуванню штрих-кодів на білеті БМЛ"
				},
				{
					"ru": "Сохранение последнего способа ввода пользователя в проверке билетов и БМЛ",
					"ua": "Зберігання останнього способу вводу користувача в перевірці білетів і БМЛ"
				}
			],
			"changed": [
				{
					"ru": "Верстка главной страницы, страницы отчетов и результатов выполнена под все разрешения (360..1920)",
					"ua": "Верстка головної сторінки, сторінки звітів і результатів виконана під всі варіанти роздільної здатності (360..1920)"
				},
				{
					"ru": "Для сканирования штрихкодов оставлен только один сканер",
					"ua": "Для сканування штрих-кодів залишений тільки один сканер"
				},
				{
					"ru": "Наименование билетов бумажных лотерей приведено к единому виду после выплаты",
					"ua": "Найменування білетів паперових лотерей приведено до єдиного вигляду після виплати"
				},
				{
					"ru": "Доработана процедура выплаты АВТО ЛОТО",
					"ua": "Доопрацьована процедура виплати АВТО ЛОТО"
				},
				{
					"ru": "Изменено поведение при нажатии браузерной кнопки \"Назад\": появилась возможность вернуться на главную страницу из разделов \"Стирачки\", \"Проверка билетов\", \"Результаты\", \"Отчеты\" и \"Другое\"",
					"ua": "Змінено поведінку при натисканні браузерної кнопки \"Назад\": з'явилася можливість повернутися на головну сторінку з розділів \"Стирачки\", \"Перевірка білетів\", \"Результати\", \"Звіти\" та \"Інше\""
				},
				{
					"ru": "Переформатирован отчет по остаткам билетов",
					"ua": "Переформатовано звіт по залишках білетів"
				},
				{
					"ru": "Изменено отображение информации о продаваемом билете стирачек",
					"ua": "Змінено відображення інформації про білет счтирачок, що продається"
				}
			],
			"fixed": [
				{
					"ru": "Отображено правильное количество проданных стирачек в калькуляторе операций",
					"ua": "Відображено правильну кількість проданих стирачок в калькуляторі операцій"
				}
			]
		},
		{
			"version": "2.1.14",
			"date": "2020-03-23T00:00:00.000Z",
			"added": [
				{
					"ru": "Прелоадер при инициализации камеры",
					"ua": "Прелоадер при ініціалізації камери"
				},
				{
					"ru": "Камера и ее скрытие при фокусе в поле ввода",
					"ua": "Камера і її приховування при фокусі в полі введення"
				},
				{
					"ru": "Кнопка очистки поля СМС-кода на аворизации сразу при вводе",
					"ua": "Кнопка очищення поля СМС-коду на аворизаціі відразу при введенні"
				},
				{
					"ru": "Добавлен скролл на главной странице",
					"ua": "Доданий скролл на головній сторінці"
				}
			]
		},
		{
			"version": "2.0.20",
			"date": "2020-03-03T00:00:00.000Z",
			"changed": [
				{
					"ru": "ПО адаптировано для работы на планшетах",
					"ua": "ПЗ адаптовано для роботи на планшетах"
				}
			]
		}
	]
}
